{
  "project_info": {
    "project_number": "1017591106541",
    "firebase_url": "https://church-yo.firebaseio.com",
    "project_id": "church-yo",
    "storage_bucket": "church-yo.appspot.com"
  },
  "client": [
    {
      "client_info": {
        "mobilesdk_app_id": "1:1017591106541:android:be19f2aa0d9152edd035e4",
        "android_client_info": {
          "package_name": "com.example.youthsmcoc"
        }
      },
      "oauth_client": [
        {
          "client_id": "1017591106541-4pr5eqgk7fa3b59p9vctpebbppc6g504.apps.googleusercontent.com",
          "client_type": 3
        }
      ],
      "api_key": [
        {
          "current_key": "AIzaSyBH2J6PQiskITTu6CLRjTFj8qUHQ8DRCtQ"
        }
      ],
      "services": {
        "appinvite_service": {
          "other_platform_oauth_client": [
            {
              "client_id": "1017591106541-4pr5eqgk7fa3b59p9vctpebbppc6g504.apps.googleusercontent.com",
              "client_type": 3
            }
          ]
        }
      }
    }
  ],
  "configuration_version": "1"
}